#
# A fatal error has been detected by the Java Runtime Environment:
#
#  Internal Error (0xc000000d), pid=2376, tid=4204
#
# JRE version: Java(TM) SE Runtime Environment (8.0_66-b18) (build 1.8.0_66-b18)
# Java VM: Java HotSpot(TM) 64-Bit Server VM (25.66-b18 mixed mode windows-amd64 compressed oops)
# Problematic frame:
# C  [ntdll.dll+0xff44c]
#
# Failed to write core dump. Minidumps are not enabled by default on client versions of Windows
#
# If you would like to submit a bug report, please visit:
#   http://bugreport.java.com/bugreport/crash.jsp
#

---------------  T H R E A D  ---------------

Current thread (0x00000000137b7000):  VMThread [stack: 0x0000000014220000,0x0000000014320000] [id=4204]

siginfo: ExceptionCode=0xc000000d

Registers:
RAX=0x0000000000000000, RBX=0xfffffffffffffffe, RCX=0x0000000000000000, RDX=0x0000000000000000
RSP=0x000000001431f370, RBP=0x00007ffceb127408, RSI=0x0000000000000000, RDI=0x0000000000000dd4
R8 =0x0000000000000000, R9 =0x0000000000020000, R10=0x000000001431ee50, R11=0x000000001431ee50
R12=0x00000000006af720, R13=0x000000000070dc10, R14=0x00000000006af828, R15=0x000000001431f4e8
RIP=0x00007ffcf67ff44c, EFLAGS=0x0000000000000202

Top of Stack: (sp=0x000000001431f370)
0x000000001431f370:   0000000000000057 fffffffffffffffe
0x000000001431f380:   0000000000000000 0000000000000dd4
0x000000001431f390:   00000000c000000d 0000000000000000
0x000000001431f3a0:   00007ffcf67ff44c 0000000000000000
0x000000001431f3b0:   0000000000000000 0000000000000000
0x000000001431f3c0:   0000000000000000 0000000000000000
0x000000001431f3d0:   0000000000000000 0000000000000000
0x000000001431f3e0:   0000000000000000 0000000000000000
0x000000001431f3f0:   0000000000000000 0000000000000000
0x000000001431f400:   0000000000000000 0000000000000000
0x000000001431f410:   0000000000000000 0000000000000000
0x000000001431f420:   0000000000000000 0000000000000000
0x000000001431f430:   0000f675aa0b6ca7 0000000000000000
0x000000001431f440:   0000000900000020 00007ffcf67c150d
0x000000001431f450:   0000000900000000 0000000000000000
0x000000001431f460:   004e00520045004b 00320033004c0045 

Instructions: (pc=0x00007ffcf67ff44c)
0x00007ffcf67ff42c:   d5 fa ff c7 44 24 20 0d 00 00 c0 b9 57 00 00 00
0x00007ffcf67ff43c:   e8 7f 13 f6 ff 90 48 8d 4c 24 20 e8 04 bf f4 ff
0x00007ffcf67ff44c:   eb 00 48 8b 8c 24 c0 00 00 00 48 33 cc e8 82 74
0x00007ffcf67ff45c:   f9 ff 48 81 c4 d8 00 00 00 c3 40 55 48 83 ec 20 


Register to memory mapping:

RAX=0x0000000000000000 is an unknown value
RBX=0xfffffffffffffffe is an unknown value
RCX=0x0000000000000000 is an unknown value
RDX=0x0000000000000000 is an unknown value
RSP=0x000000001431f370 is an unknown value
RBP=0x00007ffceb127408 is an unknown value
RSI=0x0000000000000000 is an unknown value
RDI=0x0000000000000dd4 is an unknown value
R8 =0x0000000000000000 is an unknown value
R9 =0x0000000000020000 is an unknown value
R10=0x000000001431ee50 is an unknown value
R11=0x000000001431ee50 is an unknown value
R12=0x00000000006af720 is an unknown value
R13=0x000000000070dc10 is an unknown value
R14=0x00000000006af828 is an unknown value
R15=0x000000001431f4e8 is an unknown value


Stack: [0x0000000014220000,0x0000000014320000],  sp=0x000000001431f370,  free space=1020k
Native frames: (J=compiled Java code, j=interpreted, Vv=VM code, C=native code)
C  [ntdll.dll+0xff44c]
C  [ntdll.dll+0xc150d]
C  [KERNEL32.DLL+0x1fafa]
C  [MSVCR110.dll+0x752d]
C  [MSVCR110.dll+0x73c6]
C  [MSVCR110.dll+0x14cca]
C  [MSVCR110.dll+0x13edc]
C  [MSVCR110.dll+0x239e]
C  [MSVCR110.dll+0xaf9e]
C  [MSVCP110.dll+0x397b9]
C  [librdi_common.dll+0x183a66]
C  [librdi_common.dll+0x1826fb]
C  [librdi_target_manager.dll+0x2400]
C  [librdi_target_manager.dll+0x2682]
C  [ntdll.dll+0x2a35f]
C  [ntdll.dll+0x806b]
C  [ntdll.dll+0x7d94]
C  [KERNEL32.DLL+0x1ce6a]
C  [MSVCR100.dll+0x20ccd]
V  [jvm.dll+0x210cc5]
V  [jvm.dll+0x249897]
V  [jvm.dll+0x248b36]
V  [jvm.dll+0x248fd1]
V  [jvm.dll+0x2491ee]
V  [jvm.dll+0x29a0fa]
C  [MSVCR100.dll+0x21d9f]
C  [MSVCR100.dll+0x21e3b]
C  [KERNEL32.DLL+0x8364]
C  [ntdll.dll+0x670d1]

VM_Operation (0x000000000014f4c0): Exit, mode: safepoint, requested by thread 0x00000000027ce000


---------------  P R O C E S S  ---------------

Java Threads: ( => current thread )
  0x000000001598c000 JavaThread "Thread-353" daemon [_thread_blocked, id=5356, stack(0x00000000434a0000,0x00000000435a0000)]
  0x0000000014d41000 JavaThread "TCF Channel Transmitter" daemon [_thread_blocked, id=356, stack(0x00000000240a0000,0x00000000241a0000)]
  0x0000000019e57800 JavaThread "TCF Channel Receiver" daemon [_thread_in_native, id=1188, stack(0x0000000023fa0000,0x00000000240a0000)]
  0x0000000019e54000 JavaThread "Process monitor" daemon [_thread_in_native, id=4540, stack(0x0000000023890000,0x0000000023990000)]
  0x0000000019e57000 JavaThread "Input Stream Monitor" daemon [_thread_blocked, id=5208, stack(0x0000000023790000,0x0000000023890000)]
  0x0000000019e59000 JavaThread "Output Stream Monitor" daemon [_thread_in_native, id=5588, stack(0x0000000023690000,0x0000000023790000)]
  0x0000000019e53000 JavaThread "Output Stream Monitor" daemon [_thread_in_native, id=2672, stack(0x0000000023590000,0x0000000023690000)]
  0x0000000019e4f800 JavaThread "TCF Locator DNS Lookup" daemon [_thread_blocked, id=5964, stack(0x00000000204c0000,0x00000000205c0000)]
  0x0000000019e4e800 JavaThread "TCF Locator Timer" daemon [_thread_blocked, id=4872, stack(0x00000000203c0000,0x00000000204c0000)]
  0x0000000019e4b000 JavaThread "TCF Locator Receiver" daemon [_thread_in_native, id=1872, stack(0x00000000202c0000,0x00000000203c0000)]
  0x0000000016b3f800 JavaThread "TCF Timer Dispatcher" daemon [_thread_blocked, id=5872, stack(0x0000000020050000,0x0000000020150000)]
  0x000000001605d800 JavaThread "EMF Reference Cleaner" daemon [_thread_blocked, id=680, stack(0x0000000017a00000,0x0000000017b00000)]
  0x0000000013870000 JavaThread "Service Thread" daemon [_thread_blocked, id=1896, stack(0x0000000014a30000,0x0000000014b30000)]
  0x00000000137f2800 JavaThread "C1 CompilerThread1" daemon [_thread_blocked, id=2912, stack(0x0000000014930000,0x0000000014a30000)]
  0x00000000137ec800 JavaThread "C2 CompilerThread0" daemon [_thread_blocked, id=4716, stack(0x0000000014830000,0x0000000014930000)]
  0x00000000137ea000 JavaThread "Attach Listener" daemon [_thread_blocked, id=1108, stack(0x0000000014730000,0x0000000014830000)]
  0x00000000137e7000 JavaThread "Signal Dispatcher" daemon [_thread_blocked, id=348, stack(0x0000000014630000,0x0000000014730000)]
  0x0000000002633000 JavaThread "Finalizer" daemon [_thread_blocked, id=5848, stack(0x0000000014420000,0x0000000014520000)]
  0x000000000262c000 JavaThread "Reference Handler" daemon [_thread_blocked, id=5772, stack(0x0000000014320000,0x0000000014420000)]
  0x00000000027ce000 JavaThread "main" [_thread_blocked, id=3040, stack(0x0000000000050000,0x0000000000150000)]

Other Threads:
=>0x00000000137b7000 VMThread [stack: 0x0000000014220000,0x0000000014320000] [id=4204]

VM state:at safepoint (shutting down)

VM Mutex/Monitor currently owned by a thread:  ([mutex/lock_event])
[0x00000000027ccd70] Threads_lock - owner thread: 0x00000000137b7000

Heap:
 PSYoungGen      total 38912K, used 7042K [0x00000000f5580000, 0x00000000f8200000, 0x0000000100000000)
  eden space 32256K, 9% used [0x00000000f5580000,0x00000000f5862100,0x00000000f7500000)
  from space 6656K, 61% used [0x00000000f7b80000,0x00000000f7f7e8a0,0x00000000f8200000)
  to   space 6656K, 0% used [0x00000000f7500000,0x00000000f7500000,0x00000000f7b80000)
 ParOldGen       total 169984K, used 70741K [0x00000000e0000000, 0x00000000ea600000, 0x00000000f5580000)
  object space 169984K, 41% used [0x00000000e0000000,0x00000000e45157c8,0x00000000ea600000)
 Metaspace       used 105156K, capacity 113234K, committed 113624K, reserved 1148928K
  class space    used 12016K, capacity 14455K, committed 14592K, reserved 1048576K

Card table byte_map: [0x0000000002680000,0x0000000002790000] byte_map_base: 0x0000000001f80000

Marking Bits: (ParMarkBitMap*) 0x00000000655aa5b0
 Begin Bits: [0x0000000011d90000, 0x0000000012590000)
 End Bits:   [0x0000000012590000, 0x0000000012d90000)

Polling page: 0x00000000001f0000

CodeCache: size=245760Kb used=84323Kb max_used=84452Kb free=161436Kb
 bounds [0x00000000027d0000, 0x0000000007b00000, 0x00000000117d0000]
 total_blobs=21364 nmethods=20439 adapters=832
 compilation: enabled

Compilation events (10 events):
Event: 67386.165 Thread 0x00000000137f2800 28436   !   3       org.eclipse.osgi.container.ModuleDatabase::getRevisionsTimestamp (25 bytes)
Event: 67386.166 Thread 0x00000000137f2800 nmethod 28436 0x00000000051e7f90 code [0x00000000051e81a0, 0x00000000051e8ed8]
Event: 67386.166 Thread 0x00000000137f2800 28433       3       org.eclipse.osgi.internal.framework.EquinoxContainerAdaptor::clearManifestCache (84 bytes)
Event: 67386.168 Thread 0x00000000137f2800 nmethod 28433 0x000000000309f810 code [0x000000000309fa60, 0x00000000030a1178]
Event: 67386.168 Thread 0x00000000137f2800 28434   !   3       org.eclipse.osgi.storage.BundleInfo$Generation::clearManifestCache (30 bytes)
Event: 67386.168 Thread 0x00000000137f2800 nmethod 28434 0x0000000005ca1310 code [0x0000000005ca14a0, 0x0000000005ca1ae8]
Event: 67386.169 Thread 0x00000000137f2800 28437  s    3       java.util.Hashtable::clear (38 bytes)
Event: 67386.170 Thread 0x00000000137f2800 nmethod 28437 0x00000000051e7790 code [0x00000000051e7900, 0x00000000051e7dd0]
Event: 67386.170 Thread 0x00000000137f2800 28438       3       java.util.concurrent.locks.ReentrantLock$Sync::tryRelease (45 bytes)
Event: 67386.170 Thread 0x00000000137f2800 nmethod 28438 0x0000000005ca0a90 code [0x0000000005ca0c20, 0x0000000005ca11c8]

GC Heap History (10 events):
Event: 67293.678 GC heap before
{Heap before GC invocations=341 (full 5):
 PSYoungGen      total 37376K, used 36393K [0x00000000f5580000, 0x00000000f8200000, 0x0000000100000000)
  eden space 30720K, 100% used [0x00000000f5580000,0x00000000f7380000,0x00000000f7380000)
  from space 6656K, 85% used [0x00000000f7380000,0x00000000f790a498,0x00000000f7a00000)
  to   space 7168K, 0% used [0x00000000f7b00000,0x00000000f7b00000,0x00000000f8200000)
 ParOldGen       total 169984K, used 70152K [0x00000000e0000000, 0x00000000ea600000, 0x00000000f5580000)
  object space 169984K, 41% used [0x00000000e0000000,0x00000000e44822a8,0x00000000ea600000)
 Metaspace       used 104517K, capacity 112404K, committed 112728K, reserved 1146880K
  class space    used 11954K, capacity 14382K, committed 14464K, reserved 1048576K
Event: 67293.693 GC heap after
Heap after GC invocations=341 (full 5):
 PSYoungGen      total 38400K, used 4851K [0x00000000f5580000, 0x00000000f8200000, 0x0000000100000000)
  eden space 31232K, 0% used [0x00000000f5580000,0x00000000f5580000,0x00000000f7400000)
  from space 7168K, 67% used [0x00000000f7b00000,0x00000000f7fbce80,0x00000000f8200000)
  to   space 7168K, 0% used [0x00000000f7400000,0x00000000f7400000,0x00000000f7b00000)
 ParOldGen       total 169984K, used 70184K [0x00000000e0000000, 0x00000000ea600000, 0x00000000f5580000)
  object space 169984K, 41% used [0x00000000e0000000,0x00000000e448a2a8,0x00000000ea600000)
 Metaspace       used 104517K, capacity 112404K, committed 112728K, reserved 1146880K
  class space    used 11954K, capacity 14382K, committed 14464K, reserved 1048576K
}
Event: 67303.073 GC heap before
{Heap before GC invocations=342 (full 5):
 PSYoungGen      total 38400K, used 36083K [0x00000000f5580000, 0x00000000f8200000, 0x0000000100000000)
  eden space 31232K, 100% used [0x00000000f5580000,0x00000000f7400000,0x00000000f7400000)
  from space 7168K, 67% used [0x00000000f7b00000,0x00000000f7fbce80,0x00000000f8200000)
  to   space 7168K, 0% used [0x00000000f7400000,0x00000000f7400000,0x00000000f7b00000)
 ParOldGen       total 169984K, used 70184K [0x00000000e0000000, 0x00000000ea600000, 0x00000000f5580000)
  object space 169984K, 41% used [0x00000000e0000000,0x00000000e448a2a8,0x00000000ea600000)
 Metaspace       used 104523K, capacity 112404K, committed 112728K, reserved 1146880K
  class space    used 11954K, capacity 14382K, committed 14464K, reserved 1048576K
Event: 67303.085 GC heap after
Heap after GC invocations=342 (full 5):
 PSYoungGen      total 38400K, used 4465K [0x00000000f5580000, 0x00000000f8180000, 0x0000000100000000)
  eden space 31232K, 0% used [0x00000000f5580000,0x00000000f5580000,0x00000000f7400000)
  from space 7168K, 62% used [0x00000000f7400000,0x00000000f785c6c0,0x00000000f7b00000)
  to   space 6656K, 0% used [0x00000000f7b00000,0x00000000f7b00000,0x00000000f8180000)
 ParOldGen       total 169984K, used 70469K [0x00000000e0000000, 0x00000000ea600000, 0x00000000f5580000)
  object space 169984K, 41% used [0x00000000e0000000,0x00000000e44d1778,0x00000000ea600000)
 Metaspace       used 104523K, capacity 112404K, committed 112728K, reserved 1146880K
  class space    used 11954K, capacity 14382K, committed 14464K, reserved 1048576K
}
Event: 67351.052 GC heap before
{Heap before GC invocations=343 (full 5):
 PSYoungGen      total 38400K, used 35697K [0x00000000f5580000, 0x00000000f8180000, 0x0000000100000000)
  eden space 31232K, 100% used [0x00000000f5580000,0x00000000f7400000,0x00000000f7400000)
  from space 7168K, 62% used [0x00000000f7400000,0x00000000f785c6c0,0x00000000f7b00000)
  to   space 6656K, 0% used [0x00000000f7b00000,0x00000000f7b00000,0x00000000f8180000)
 ParOldGen       total 169984K, used 70469K [0x00000000e0000000, 0x00000000ea600000, 0x00000000f5580000)
  object space 169984K, 41% used [0x00000000e0000000,0x00000000e44d1778,0x00000000ea600000)
 Metaspace       used 104588K, capacity 112542K, committed 112984K, reserved 1148928K
  class space    used 11954K, capacity 14383K, committed 14464K, reserved 1048576K
Event: 67351.064 GC heap after
Heap after GC invocations=343 (full 5):
 PSYoungGen      total 38400K, used 4945K [0x00000000f5580000, 0x00000000f8180000, 0x0000000100000000)
  eden space 31744K, 0% used [0x00000000f5580000,0x00000000f5580000,0x00000000f7480000)
  from space 6656K, 74% used [0x00000000f7b00000,0x00000000f7fd4670,0x00000000f8180000)
  to   space 6656K, 0% used [0x00000000f7480000,0x00000000f7480000,0x00000000f7b00000)
 ParOldGen       total 169984K, used 70613K [0x00000000e0000000, 0x00000000ea600000, 0x00000000f5580000)
  object space 169984K, 41% used [0x00000000e0000000,0x00000000e44f57c8,0x00000000ea600000)
 Metaspace       used 104588K, capacity 112542K, committed 112984K, reserved 1148928K
  class space    used 11954K, capacity 14383K, committed 14464K, reserved 1048576K
}
Event: 67383.393 GC heap before
{Heap before GC invocations=344 (full 5):
 PSYoungGen      total 38400K, used 36689K [0x00000000f5580000, 0x00000000f8180000, 0x0000000100000000)
  eden space 31744K, 100% used [0x00000000f5580000,0x00000000f7480000,0x00000000f7480000)
  from space 6656K, 74% used [0x00000000f7b00000,0x00000000f7fd4670,0x00000000f8180000)
  to   space 6656K, 0% used [0x00000000f7480000,0x00000000f7480000,0x00000000f7b00000)
 ParOldGen       total 169984K, used 70613K [0x00000000e0000000, 0x00000000ea600000, 0x00000000f5580000)
  object space 169984K, 41% used [0x00000000e0000000,0x00000000e44f57c8,0x00000000ea600000)
 Metaspace       used 104695K, capacity 112700K, committed 112984K, reserved 1148928K
  class space    used 11966K, capacity 14388K, committed 14464K, reserved 1048576K
Event: 67383.406 GC heap after
Heap after GC invocations=344 (full 5):
 PSYoungGen      total 38400K, used 4465K [0x00000000f5580000, 0x00000000f8200000, 0x0000000100000000)
  eden space 31744K, 0% used [0x00000000f5580000,0x00000000f5580000,0x00000000f7480000)
  from space 6656K, 67% used [0x00000000f7480000,0x00000000f78dc6b0,0x00000000f7b00000)
  to   space 6656K, 0% used [0x00000000f7b80000,0x00000000f7b80000,0x00000000f8200000)
 ParOldGen       total 169984K, used 70685K [0x00000000e0000000, 0x00000000ea600000, 0x00000000f5580000)
  object space 169984K, 41% used [0x00000000e0000000,0x00000000e45077c8,0x00000000ea600000)
 Metaspace       used 104695K, capacity 112700K, committed 112984K, reserved 1148928K
  class space    used 11966K, capacity 14388K, committed 14464K, reserved 1048576K
}
Event: 67386.033 GC heap before
{Heap before GC invocations=345 (full 5):
 PSYoungGen      total 38400K, used 36209K [0x00000000f5580000, 0x00000000f8200000, 0x0000000100000000)
  eden space 31744K, 100% used [0x00000000f5580000,0x00000000f7480000,0x00000000f7480000)
  from space 6656K, 67% used [0x00000000f7480000,0x00000000f78dc6b0,0x00000000f7b00000)
  to   space 6656K, 0% used [0x00000000f7b80000,0x00000000f7b80000,0x00000000f8200000)
 ParOldGen       total 169984K, used 70685K [0x00000000e0000000, 0x00000000ea600000, 0x00000000f5580000)
  object space 169984K, 41% used [0x00000000e0000000,0x00000000e45077c8,0x00000000ea600000)
 Metaspace       used 105081K, capacity 113170K, committed 113624K, reserved 1148928K
  class space    used 12011K, capacity 14455K, committed 14592K, reserved 1048576K
Event: 67386.042 GC heap after
Heap after GC invocations=345 (full 5):
 PSYoungGen      total 38912K, used 4090K [0x00000000f5580000, 0x00000000f8200000, 0x0000000100000000)
  eden space 32256K, 0% used [0x00000000f5580000,0x00000000f5580000,0x00000000f7500000)
  from space 6656K, 61% used [0x00000000f7b80000,0x00000000f7f7e8a0,0x00000000f8200000)
  to   space 6656K, 0% used [0x00000000f7500000,0x00000000f7500000,0x00000000f7b80000)
 ParOldGen       total 169984K, used 70741K [0x00000000e0000000, 0x00000000ea600000, 0x00000000f5580000)
  object space 169984K, 41% used [0x00000000e0000000,0x00000000e45157c8,0x00000000ea600000)
 Metaspace       used 105081K, capacity 113170K, committed 113624K, reserved 1148928K
  class space    used 12011K, capacity 14455K, committed 14592K, reserved 1048576K
}

Deoptimization events (10 events):
Event: 67386.114 Thread 0x0000000014d4a800 Uncommon trap: reason=unstable_if action=reinterpret pc=0x0000000006860ad4 method=org.eclipse.core.internal.jobs.WorkerPool.startJob(Lorg/eclipse/core/internal/jobs/Worker;)Lorg/eclipse/core/internal/jobs/InternalJob; @ 177
Event: 67386.115 Thread 0x0000000018f13800 Uncommon trap: reason=unstable_if action=reinterpret pc=0x0000000006860ad4 method=org.eclipse.core.internal.jobs.WorkerPool.startJob(Lorg/eclipse/core/internal/jobs/Worker;)Lorg/eclipse/core/internal/jobs/InternalJob; @ 177
Event: 67386.115 Thread 0x0000000018f18000 Uncommon trap: reason=unstable_if action=reinterpret pc=0x0000000006860ad4 method=org.eclipse.core.internal.jobs.WorkerPool.startJob(Lorg/eclipse/core/internal/jobs/Worker;)Lorg/eclipse/core/internal/jobs/InternalJob; @ 177
Event: 67386.116 Thread 0x0000000018f0e800 Uncommon trap: reason=unstable_if action=reinterpret pc=0x0000000006860ad4 method=org.eclipse.core.internal.jobs.WorkerPool.startJob(Lorg/eclipse/core/internal/jobs/Worker;)Lorg/eclipse/core/internal/jobs/InternalJob; @ 177
Event: 67386.116 Thread 0x0000000014d43800 Uncommon trap: reason=unstable_if action=reinterpret pc=0x0000000006860ad4 method=org.eclipse.core.internal.jobs.WorkerPool.startJob(Lorg/eclipse/core/internal/jobs/Worker;)Lorg/eclipse/core/internal/jobs/InternalJob; @ 177
Event: 67386.116 Thread 0x0000000018f0d000 Uncommon trap: reason=unstable_if action=reinterpret pc=0x0000000006860ad4 method=org.eclipse.core.internal.jobs.WorkerPool.startJob(Lorg/eclipse/core/internal/jobs/Worker;)Lorg/eclipse/core/internal/jobs/InternalJob; @ 177
Event: 67386.117 Thread 0x0000000018f12000 Uncommon trap: reason=unstable_if action=reinterpret pc=0x0000000006860ad4 method=org.eclipse.core.internal.jobs.WorkerPool.startJob(Lorg/eclipse/core/internal/jobs/Worker;)Lorg/eclipse/core/internal/jobs/InternalJob; @ 177
Event: 67386.156 Thread 0x0000000015980000 Uncommon trap: reason=unstable_if action=reinterpret pc=0x00000000053f2588 method=java.util.concurrent.locks.ReentrantLock$NonfairSync.lock()V @ 6
Event: 67386.156 Thread 0x0000000015980000 Uncommon trap: reason=unstable_if action=reinterpret pc=0x0000000003a520c0 method=java.util.concurrent.locks.ReentrantLock$Sync.tryRelease(I)Z @ 28
Event: 67386.162 Thread 0x0000000016b41000 Uncommon trap: reason=unstable_if action=reinterpret pc=0x0000000002a2ca60 method=org.eclipse.osgi.framework.eventmgr.EventManager$EventThread.getNextEvent()Lorg/eclipse/osgi/framework/eventmgr/EventManager$EventThread$Queued; @ 15

Internal exceptions (10 events):
Event: 67385.048 Thread 0x00000000027ce000 Exception <a 'java/io/FileNotFoundException'> (0x00000000f6d16af8) thrown at [C:\re\workspace\8-2-build-windows-amd64-cygwin\jdk8u66\5298\hotspot\src\share\vm\prims\jni.cpp, line 709]
Event: 67385.048 Thread 0x00000000027ce000 Exception <a 'java/io/FileNotFoundException'> (0x00000000f6d187f8) thrown at [C:\re\workspace\8-2-build-windows-amd64-cygwin\jdk8u66\5298\hotspot\src\share\vm\prims\jni.cpp, line 709]
Event: 67385.048 Thread 0x00000000027ce000 Exception <a 'java/io/FileNotFoundException'> (0x00000000f6d1a648) thrown at [C:\re\workspace\8-2-build-windows-amd64-cygwin\jdk8u66\5298\hotspot\src\share\vm\prims\jni.cpp, line 709]
Event: 67385.179 Thread 0x0000000015989800 Exception <a 'java/lang/InterruptedException'> (0x00000000f71ee6d0) thrown at [C:\re\workspace\8-2-build-windows-amd64-cygwin\jdk8u66\5298\hotspot\src\share\vm\runtime\objectMonitor.cpp, line 1683]
Event: 67385.224 Thread 0x0000000015af1800 Implicit null exception at 0x0000000007ac396e to 0x0000000007ac3bed
Event: 67385.252 Thread 0x0000000015980000 Implicit null exception at 0x0000000005e590ac to 0x0000000005e594a1
Event: 67386.086 Thread 0x0000000016b3f000 Exception <a 'java/lang/InterruptedException'> (0x00000000f5628dc0) thrown at [C:\re\workspace\8-2-build-windows-amd64-cygwin\jdk8u66\5298\hotspot\src\share\vm\runtime\objectMonitor.cpp, line 1683]
Event: 67386.118 Thread 0x0000000015af1800 Exception <a 'java/lang/InterruptedException'> (0x00000000f55bf818) thrown at [C:\re\workspace\8-2-build-windows-amd64-cygwin\jdk8u66\5298\hotspot\src\share\vm\runtime\objectMonitor.cpp, line 1683]
Event: 67386.162 Thread 0x0000000016b41000 Exception <a 'java/lang/InterruptedException'> (0x00000000f55a7210) thrown at [C:\re\workspace\8-2-build-windows-amd64-cygwin\jdk8u66\5298\hotspot\src\share\vm\runtime\objectMonitor.cpp, line 1683]
Event: 67386.174 Thread 0x0000000015cc8000 Exception <a 'java/lang/InterruptedException'> (0x00000000f57b2c10) thrown at [C:\re\workspace\8-2-build-windows-amd64-cygwin\jdk8u66\5298\hotspot\src\share\vm\runtime\objectMonitor.cpp, line 1683]

Events (10 events):
Event: 67386.171 Thread 0x0000000015980000 Thread exited: 0x0000000015980000
Event: 67386.173 Thread 0x0000000015c35000 Thread exited: 0x0000000015c35000
Event: 67386.174 Thread 0x0000000015cc8000 Thread exited: 0x0000000015cc8000
Event: 67386.174 loading class java/util/IdentityHashMap$KeyIterator
Event: 67386.177 loading class java/util/IdentityHashMap$IdentityHashMapIterator
Event: 67386.178 loading class java/util/IdentityHashMap$IdentityHashMapIterator done
Event: 67386.178 loading class java/util/IdentityHashMap$KeyIterator done
Event: 67386.179 Thread 0x0000000015982000 Thread added: 0x0000000015982000
Event: 67386.189 Thread 0x0000000015982000 Thread exited: 0x0000000015982000
Event: 67386.194 Executing VM operation: Exit


Dynamic libraries:
0x0000000000400000 - 0x000000000044f000 	C:\Xilinx\SDK\2016.4\eclipse\win64.o\eclipse.exe
0x00007ffcf6700000 - 0x00007ffcf68d1000 	C:\Windows\SYSTEM32\ntdll.dll
0x00007ffcf49f0000 - 0x00007ffcf4a9c000 	C:\Windows\System32\KERNEL32.DLL
0x00007ffcf3390000 - 0x00007ffcf35ad000 	C:\Windows\System32\KERNELBASE.dll
0x00007ffcf6180000 - 0x00007ffcf62e5000 	C:\Windows\System32\USER32.dll
0x00007ffcf2bf0000 - 0x00007ffcf2c0e000 	C:\Windows\System32\win32u.dll
0x00007ffcf41c0000 - 0x00007ffcf41f4000 	C:\Windows\System32\GDI32.dll
0x00007ffcf2d20000 - 0x00007ffcf2ea2000 	C:\Windows\System32\gdi32full.dll
0x00007ffcf62f0000 - 0x00007ffcf638e000 	C:\Windows\System32\msvcrt.dll
0x00007ffce9af0000 - 0x00007ffce9d6a000 	C:\Windows\WinSxS\amd64_microsoft.windows.common-controls_6595b64144ccf1df_6.0.14393.953_none_42151e83c686086b\COMCTL32.dll
0x00007ffcf3ef0000 - 0x00007ffcf41b8000 	C:\Windows\System32\combase.dll
0x00007ffcf2eb0000 - 0x00007ffcf2fa5000 	C:\Windows\System32\ucrtbase.dll
0x00007ffcf6420000 - 0x00007ffcf6541000 	C:\Windows\System32\RPCRT4.dll
0x00007ffcf2c10000 - 0x00007ffcf2c7a000 	C:\Windows\System32\bcryptPrimitives.dll
0x00007ffcf63f0000 - 0x00007ffcf641e000 	C:\Windows\System32\IMM32.DLL
0x0000000072000000 - 0x0000000072012000 	C:\Xilinx\SDK\2016.4\eclipse\win64.o\plugins\org.eclipse.equinox.launcher.win32.win32.x86_64_1.1.300.v20150602-1417\eclipse_1611.dll
0x00007ffcf4430000 - 0x00007ffcf44d2000 	C:\Windows\System32\ADVAPI32.dll
0x00007ffcf4200000 - 0x00007ffcf4259000 	C:\Windows\System32\sechost.dll
0x00007ffce6740000 - 0x00007ffce674a000 	C:\Windows\SYSTEM32\VERSION.dll
0x00007ffcf12e0000 - 0x00007ffcf1375000 	C:\Windows\system32\uxtheme.dll
0x00007ffcf3c90000 - 0x00007ffcf3dea000 	C:\Windows\System32\MSCTF.dll
0x00007ffcf60c0000 - 0x00007ffcf617f000 	C:\Windows\System32\OLEAUT32.dll
0x00007ffcf2c80000 - 0x00007ffcf2d1c000 	C:\Windows\System32\msvcp_win.dll
0x0000000064da0000 - 0x0000000065629000 	C:\Xilinx\SDK\2016.4\tps\win64\jre\bin\server\jvm.dll
0x00007ffcf66f0000 - 0x00007ffcf66f8000 	C:\Windows\System32\PSAPI.DLL
0x00007ffcf0fe0000 - 0x00007ffcf1003000 	C:\Windows\SYSTEM32\WINMM.dll
0x00007ffced470000 - 0x00007ffced479000 	C:\Windows\SYSTEM32\WSOCK32.dll
0x00007ffcf4550000 - 0x00007ffcf45ba000 	C:\Windows\System32\WS2_32.dll
0x00007ffcf0fb0000 - 0x00007ffcf0fdb000 	C:\Windows\SYSTEM32\WINMMBASE.dll
0x0000000064b90000 - 0x0000000064c62000 	C:\Xilinx\SDK\2016.4\tps\win64\jre\bin\MSVCR100.dll
0x00007ffcf3170000 - 0x00007ffcf31b2000 	C:\Windows\System32\cfgmgr32.dll
0x0000000064b80000 - 0x0000000064b8f000 	C:\Xilinx\SDK\2016.4\tps\win64\jre\bin\verify.dll
0x0000000064b50000 - 0x0000000064b79000 	C:\Xilinx\SDK\2016.4\tps\win64\jre\bin\java.dll
0x0000000064b30000 - 0x0000000064b46000 	C:\Xilinx\SDK\2016.4\tps\win64\jre\bin\zip.dll
0x00007ffcf4aa0000 - 0x00007ffcf5fa8000 	C:\Windows\System32\SHELL32.dll
0x00007ffcf35b0000 - 0x00007ffcf3c8a000 	C:\Windows\System32\windows.storage.dll
0x00007ffcf2b70000 - 0x00007ffcf2bbc000 	C:\Windows\System32\powrprof.dll
0x00007ffcf44f0000 - 0x00007ffcf4542000 	C:\Windows\System32\shlwapi.dll
0x00007ffcf2bc0000 - 0x00007ffcf2bcf000 	C:\Windows\System32\kernel.appcore.dll
0x00007ffcf30c0000 - 0x00007ffcf3169000 	C:\Windows\System32\shcore.dll
0x00007ffcf2bd0000 - 0x00007ffcf2be4000 	C:\Windows\System32\profapi.dll
0x00007ffcf25d0000 - 0x00007ffcf25e7000 	C:\Windows\SYSTEM32\CRYPTSP.dll
0x00007ffcf2030000 - 0x00007ffcf2063000 	C:\Windows\system32\rsaenh.dll
0x00007ffcf2aa0000 - 0x00007ffcf2acb000 	C:\Windows\SYSTEM32\bcrypt.dll
0x00007ffcf22b0000 - 0x00007ffcf22cf000 	C:\Windows\SYSTEM32\USERENV.dll
0x00007ffcf25f0000 - 0x00007ffcf25fb000 	C:\Windows\SYSTEM32\CRYPTBASE.dll
0x0000000064b10000 - 0x0000000064b2a000 	C:\Xilinx\SDK\2016.4\tps\win64\jre\bin\net.dll
0x00007ffcf2430000 - 0x00007ffcf248c000 	C:\Windows\system32\mswsock.dll
0x00007ffcf21b0000 - 0x00007ffcf21e8000 	C:\Windows\SYSTEM32\IPHLPAPI.DLL
0x00007ffcf43c0000 - 0x00007ffcf43c8000 	C:\Windows\System32\NSI.dll
0x00007ffced120000 - 0x00007ffced136000 	C:\Windows\SYSTEM32\dhcpcsvc6.DLL
0x00007ffced880000 - 0x00007ffced89a000 	C:\Windows\SYSTEM32\dhcpcsvc.DLL
0x0000000064af0000 - 0x0000000064b01000 	C:\Xilinx\SDK\2016.4\tps\win64\jre\bin\nio.dll
0x00007ffce0200000 - 0x00007ffce0216000 	C:\Windows\system32\napinsp.dll
0x00007ffce0220000 - 0x00007ffce023a000 	C:\Windows\system32\pnrpnsp.dll
0x00007ffcf0260000 - 0x00007ffcf0278000 	C:\Windows\system32\NLAapi.dll
0x00007ffcf21f0000 - 0x00007ffcf2291000 	C:\Windows\SYSTEM32\DNSAPI.dll
0x00007ffce0240000 - 0x00007ffce024e000 	C:\Windows\System32\winrnr.dll
0x00007ffce80d0000 - 0x00007ffce80da000 	C:\Windows\System32\rasadhlp.dll
0x00007ffceba80000 - 0x00007ffcebaea000 	C:\Windows\System32\fwpuclnt.dll
0x0000000017900000 - 0x00000000179a8000 	C:\Users\Zonic\.Xilinx\SDK\2016.4\org.eclipse.osgi\319\0\.cp\swt-win32-4527.dll
0x00007ffcf4280000 - 0x00007ffcf43b8000 	C:\Windows\System32\ole32.dll
0x00007ffcf3df0000 - 0x00007ffcf3eea000 	C:\Windows\System32\comdlg32.dll
0x00007ffcf31c0000 - 0x00007ffcf3389000 	C:\Windows\System32\CRYPT32.dll
0x00007ffcf2b60000 - 0x00007ffcf2b70000 	C:\Windows\System32\MSASN1.dll
0x00007ffce87e0000 - 0x00007ffce8866000 	C:\Windows\SYSTEM32\WINSPOOL.DRV
0x00007ffcee4f0000 - 0x00007ffcee509000 	C:\Windows\SYSTEM32\USP10.dll
0x00007ffce2b60000 - 0x00007ffce2e2a000 	C:\Windows\SYSTEM32\WININET.dll
0x00007ffcf0980000 - 0x00007ffcf09a6000 	C:\Windows\system32\dwmapi.dll
0x00007ffcf0780000 - 0x00007ffcf0905000 	C:\Windows\SYSTEM32\propsys.dll
0x00007ffcf5fb0000 - 0x00007ffcf604f000 	C:\Windows\System32\clbcatq.dll
0x0000000017d00000 - 0x0000000017d1e000 	C:\Users\Zonic\.Xilinx\SDK\2016.4\org.eclipse.osgi\319\0\.cp\swt-gdip-win32-4527.dll
0x00007ffcdbdc0000 - 0x00007ffcdbf5a000 	C:\Windows\WinSxS\amd64_microsoft.windows.gdiplus_6595b64144ccf1df_1.1.14393.953_none_7300116921188239\gdiplus.dll
0x00007ffcf0410000 - 0x00007ffcf05b8000 	C:\Windows\SYSTEM32\WindowsCodecs.dll
0x0000000180000000 - 0x0000000180012000 	C:\Users\Zonic\.Xilinx\SDK\2016.4\org.eclipse.osgi\133\0\.cp\os\win32\x86_64\localfile_1_0_0.dll
0x00007ffce1ad0000 - 0x00007ffce1b35000 	C:\Windows\SYSTEM32\oleacc.dll
0x00007ffcee1a0000 - 0x00007ffcee1a7000 	C:\Windows\SYSTEM32\msimg32.dll
0x00007ffceb2d0000 - 0x00007ffceb2e1000 	C:\Users\Zonic\.Xilinx\SDK\2016.4\org.eclipse.osgi\136\0\.cp\jWinHttp-1.0.0.dll
0x00007ffce9fe0000 - 0x00007ffcea0ad000 	C:\Windows\SYSTEM32\WINHTTP.dll
0x00007ffce08b0000 - 0x00007ffce08f2000 	C:\Windows\SYSTEM32\edputil.dll
0x00007ffcea400000 - 0x00007ffcea40f000 	C:\Xilinx\SDK\2016.4\lib\win64.o\librdi_repo_manager.dll
0x00007ffcea3d0000 - 0x00007ffcea3fa000 	C:\Xilinx\SDK\2016.4\lib\win64.o\libisl_sysinfo.dll
0x00007ffcae610000 - 0x00007ffcaf0ba000 	C:\Xilinx\SDK\2016.4\lib\win64.o\librdi_common.dll
0x00007ffce19b0000 - 0x00007ffce1a03000 	C:\Xilinx\SDK\2016.4\lib\win64.o\librdi_commonxillic.dll
0x00007ffcda930000 - 0x00007ffcdab28000 	C:\Xilinx\SDK\2016.4\lib\win64.o\librdi_hsm.dll
0x00007ffcee080000 - 0x00007ffcee127000 	C:\Windows\SYSTEM32\MSVCP110.dll
0x00007ffceb120000 - 0x00007ffceb1f4000 	C:\Windows\SYSTEM32\MSVCR110.dll
0x00007ffcda5c0000 - 0x00007ffcda92e000 	C:\Xilinx\SDK\2016.4\lib\win64.o\libCOIN-all.dll
0x00007ffcda3a0000 - 0x00007ffcda5bf000 	C:\Xilinx\SDK\2016.4\lib\win64.o\libXil_lmgr11.dll
0x00007ffcf2fb0000 - 0x00007ffcf3005000 	C:\Windows\System32\WINTRUST.dll
0x00007ffce9a80000 - 0x00007ffce9a90000 	C:\Xilinx\SDK\2016.4\lib\win64.o\libboost_date_time.dll
0x00007ffce8ab0000 - 0x00007ffce8ad4000 	C:\Xilinx\SDK\2016.4\lib\win64.o\libboost_filesystem.dll
0x00007ffce1850000 - 0x00007ffce18c7000 	C:\Xilinx\SDK\2016.4\lib\win64.o\libboost_program_options.dll
0x00007ffcdc910000 - 0x00007ffcdca16000 	C:\Xilinx\SDK\2016.4\lib\win64.o\libboost_regex.dll
0x00007ffce8a90000 - 0x00007ffce8aa3000 	C:\Xilinx\SDK\2016.4\lib\win64.o\libboost_signals.dll
0x00007ffce9280000 - 0x00007ffce9289000 	C:\Xilinx\SDK\2016.4\lib\win64.o\libboost_system.dll
0x00007ffce4da0000 - 0x00007ffce4dbd000 	C:\Xilinx\SDK\2016.4\lib\win64.o\libboost_thread.dll
0x00007ffce9230000 - 0x00007ffce923b000 	C:\Xilinx\SDK\2016.4\lib\win64.o\libboost_xilinx.dll
0x00007ffce17d0000 - 0x00007ffce1850000 	C:\Xilinx\SDK\2016.4\lib\win64.o\libhdlpsolve.dll
0x00007ffcdcfe0000 - 0x00007ffcdd07a000 	C:\Xilinx\SDK\2016.4\lib\win64.o\libhdxml.dll
0x00007ffcb08d0000 - 0x00007ffcb0c99000 	C:\Xilinx\SDK\2016.4\lib\win64.o\libisl_iostreams.dll
0x00007ffce2b40000 - 0x00007ffce2b55000 	C:\Xilinx\SDK\2016.4\lib\win64.o\pthreadVC2.dll
0x00007ffccc260000 - 0x00007ffccc390000 	C:\Xilinx\SDK\2016.4\lib\win64.o\librdi_curl.dll
0x00007ffce2ab0000 - 0x00007ffce2ac8000 	C:\Xilinx\SDK\2016.4\lib\win64.o\librdiconfig.dll
0x00007ffce1990000 - 0x00007ffce19af000 	C:\Xilinx\SDK\2016.4\lib\win64.o\librdizlib.dll
0x0000000064c70000 - 0x0000000064d97000 	C:\Xilinx\SDK\2016.4\lib\win64.o\tcl85t.dll
0x0000000022990000 - 0x0000000022bf3000 	C:\Xilinx\SDK\2016.4\lib\win64.o\xerces-c_3_1.dll
0x00007ffce74c0000 - 0x00007ffce7683000 	C:\Windows\SYSTEM32\urlmon.dll
0x00007ffce98f0000 - 0x00007ffce9913000 	C:\Windows\SYSTEM32\VCOMP110.DLL
0x00007ffcdc8c0000 - 0x00007ffcdc903000 	C:\Xilinx\SDK\2016.4\lib\win64.o\librdi_hdf.dll
0x00007ffcb0600000 - 0x00007ffcb08c8000 	C:\Xilinx\SDK\2016.4\lib\win64.o\librdi_ippcw.dll
0x00007ffce63d0000 - 0x00007ffce63e8000 	C:\Windows\SYSTEM32\NETAPI32.dll
0x00007ffce6720000 - 0x00007ffce672b000 	C:\Xilinx\SDK\2016.4\lib\win64.o\libboost_chrono.dll
0x00007ffcdea30000 - 0x00007ffcdea46000 	C:\Xilinx\SDK\2016.4\lib\win64.o\libboost_iostreams.dll
0x00007ffcdc610000 - 0x00007ffcdc633000 	C:\Xilinx\SDK\2016.4\lib\win64.o\libisl_iosutils.dll
0x00007ffcebd90000 - 0x00007ffcec035000 	C:\Windows\SYSTEM32\iertutil.dll
0x00007ffceb350000 - 0x00007ffceb366000 	C:\Xilinx\SDK\2016.4\eclipse\win64.o\plugins\org.eclipse.cdt.core.win32.x86_64_5.4.0.201509131935\os\win32\x86_64\spawner.dll
0x00007ffceb270000 - 0x00007ffceb27a000 	C:\Xilinx\SDK\2016.4\lib\win64.o\librdi_jtag_settings.dll
0x00007ffceb200000 - 0x00007ffceb229000 	C:\Xilinx\SDK\2016.4\lib\win64.o\librdi_debug_dialog.dll
0x00007ffceb260000 - 0x00007ffceb268000 	C:\Xilinx\SDK\2016.4\lib\win64.o\librdi_target_manager.dll
0x00007ffc9d1d0000 - 0x00007ffc9d9e0000 	C:\Xilinx\SDK\2016.4\lib\win64.o\libXil_lmgr11FNP.dll
0x00007ffcf45c0000 - 0x00007ffcf49e9000 	C:\Windows\System32\SETUPAPI.dll
0x00007ffce5770000 - 0x00007ffce577c000 	C:\Windows\SYSTEM32\snmpapi.dll
0x00007ffcf27d0000 - 0x00007ffcf27fc000 	C:\Windows\SYSTEM32\SspiCli.dll
0x0000000021f50000 - 0x0000000021f53000 	C:\Windows\SYSTEM32\icmp.Dll
0x00007ffcedb80000 - 0x00007ffcedb8b000 	C:\Windows\SYSTEM32\WINNSI.DLL
0x00007ffcf1820000 - 0x00007ffcf1848000 	C:\Windows\SYSTEM32\DEVOBJ.dll
0x00007ffce8600000 - 0x00007ffce8792000 	C:\Windows\SYSTEM32\dbghelp.dll

VM Arguments:
jvm_args: -Dcom.xilinx.sdk.args.hwspec=C:/Users/Zonic/project_4/project_4.sdk/design_1_wrapper.hdf -Xms64m -Xmx512m & 
java_command: <unknown>
java_class_path (initial): C:\Xilinx\SDK\2016.4\eclipse\win64.o\\plugins/org.eclipse.equinox.launcher_1.3.100.v20150511-1540.jar
Launcher Type: generic

Environment Variables:
PATH=C:/Xilinx/SDK/2016.4/tps/win64/jre/bin/server;C:/Xilinx/SDK/2016.4/tps/win64/jre/bin;C:/Xilinx/SDK/2016.4/tps/win64/jre/lib/amd64;C:\Xilinx\SDK\2016.4\gnuwin\bin;C:\Xilinx\SDK\2016.4\gnu\microblaze\nt\bin;C:\Xilinx\SDK\2016.4\gnu\microblaze\linux_toolchain\nt64_le\bin;C:\Xilinx\SDK\2016.4\gnu\microblaze\linux_toolchain\nt64_be\bin;C:\Xilinx\SDK\2016.4\gnu\arm\nt\bin;C:\Xilinx\SDK\2016.4\gnu\aarch64\nt\aarch64-none\bin;C:\Xilinx\SDK\2016.4\gnu\aarch64\nt\aarch64-linux\bin;C:\Xilinx\SDK\2016.4\gnu\armr5\nt\gcc-arm-none-eabi\bin;C:\Xilinx\SDK\2016.4\gnu\aarch32\nt\gcc-arm-none-eabi\bin;C:\Xilinx\SDK\2016.4\gnu\aarch32\nt\gcc-arm-linux-gnueabi\bin;C:\Xilinx\SDK\2016.4\tps\win64\cmake-3.3.2\bin;;C:\Xilinx\SDK\2016.4\bin;C:\Xilinx\SDK\2016.4\lib\win64.o;C:\Xilinx\SDK\2016.4\tps\win64\jre\bin\server;C:\Xilinx\SDK\2016.4\tps\win64\jre\bin;C:\Xilinx\Vivado\2016.4\ids_lite\ISE\bin\nt64;C:\Xilinx\Vivado\2016.4\ids_lite\ISE\lib\nt64;C:\Xilinx\Vivado\2016.4\bin;C:\Xilinx\Vivado\2016.4\lib\win64.o;C:\Xilinx\Vivado\2016.4\tps\win64\jre\bin\server;C:\Xilinx\Vivado\2016.4\tps\win64\jre\bin;C:\Xilinx\Vivado_HLS\2016.4\bin;C:\ProgramData\Oracle\Java\javapath;C:\Program Files (x86)\Parallels\Parallels Tools\Applications;C:\Windows\system32;C:\Windows;C:\Windows\System32\Wbem;C:\Windows\System32\WindowsPowerShell\v1.0\;C:\Program Files\Git\cmd;C:\Program Files\PuTTY\;C:\Users\Zonic\AppData\Local\Microsoft\WindowsApps;;C:\Users\Zonic\project_4;
USERNAME=Zonic
OS=Windows_NT
PROCESSOR_IDENTIFIER=Intel64 Family 6 Model 61 Stepping 4, GenuineIntel



---------------  S Y S T E M  ---------------

OS: Windows 10.0 , 64 bit Build 14393 (10.0.14393.1198)

CPU:total 2 (2 cores per cpu, 1 threads per core) family 6 model 61 stepping 4, cmov, cx8, fxsr, mmx, sse, sse2, sse3, ssse3, sse4.1, sse4.2, popcnt, avx, avx2, aes, clmul, erms, lzcnt, tsc, bmi1, bmi2, adx

Memory: 4k page, physical 3071520k(981556k free), swap 6479392k(1970520k free)

vm_info: Java HotSpot(TM) 64-Bit Server VM (25.66-b18) for windows-amd64 JRE (1.8.0_66-b18), built on Nov  9 2015 10:51:13 by "java_re" with MS VC++ 10.0 (VS2010)

time: Wed May 24 10:56:28 2017
elapsed time: 67387 seconds (0d 18h 43m 7s)

