#-----------------------------------------------------------
# updatemem v2016.4 (64-bit)
# SW Build 1756540 on Mon Jan 23 19:11:23 MST 2017
# 
# Start of session at: Tue May 23 16:16:32 2017
# Process ID: 5012
# Current directory: C:/Users/Zonic/project_4
# Command line: updatemem.exe -mode batch -source C:/Xilinx/SDK/2016.4/scripts/updatemem/main.tcl -notrace -tclargs -meminfo C:/Users/Zonic/project_4/project_4.sdk/design_1_wrapper_hw_platform_0/design_1_wrapper.mmi -data C:/Xilinx/SDK/2016.4/data/embeddedsw/lib/microblaze/mb_bootloop_le.elf -proc design_1_i/microblaze_0 -bit C:/Users/Zonic/project_4/project_4.sdk/design_1_wrapper_hw_platform_0/design_1_wrapper.bit -out C:/Users/Zonic/project_4/project_4.sdk/design_1_wrapper_hw_platform_0/download.bit -force
# Log file: C:/Users/Zonic/project_4/updatemem.log
# Journal file: C:/Users/Zonic/project_4\updatemem.jou
#-----------------------------------------------------------
source C:/Xilinx/SDK/2016.4/scripts/updatemem/main.tcl -notrace
 Loading bitfile C:/Users/Zonic/project_4/project_4.sdk/design_1_wrapper_hw_platform_0/design_1_wrapper.bit
Loading data files...
Updating memory content...
Creating bitstream...
Writing bitstream C:/Users/Zonic/project_4/project_4.sdk/design_1_wrapper_hw_platform_0/download.bit...
  update_mem: Time (s): cpu = 00:00:16 ; elapsed = 00:00:20 . Memory (MB): peak = 506.992 ; gain = 457.398
INFO: [Common 17-206] Exiting updatemem at Tue May 23 16:16:53 2017...
