// Mem file initialization records.
//
// SW Build 1756540 on Mon Jan 23 19:11:23 MST 2017
// Vivado v2016.4 (64-bit)
// Copyright 1986-2016 Xilinx, Inc. All Rights Reserved.
// Created on Tuesday May 23, 2017 - 05:26:52 pm, from:
//
//     Map file     - C:\Users\Zonic\project_4\project_4.srcs\sources_1\bd\design_1\design_1.bmm
//     Data file(s) - c:/Users/Zonic/project_4/project_4.srcs/sources_1/bd/design_1/ip/design_1_microblaze_0_2/data/mb_bootloop_le.elf
//
// Address space 'design_1_i_microblaze_0.design_1_i_microblaze_0_local_memory_lmb_bram_64K_2_ADDR_SPACE', bit lane [31:0].
//
// Bus width = 32 bits, number of bus blocks = 1.

@00000000
    B8000000
