// Mem file initialization records.
//
// SW Build 1756540 on Mon Jan 23 19:11:23 MST 2017
// Vivado v2016.4 (64-bit)
// Copyright 1986-2016 Xilinx, Inc. All Rights Reserved.
// Created on Thursday June 01, 2017 - 03:33:02 pm, from:
//
//     Map file     - C:\Users\Zonic\tutorial_2\tutorial_2.srcs\sources_1\bd\design_1\design_1.bmm
//     Data file(s) - c:/Users/Zonic/tutorial_2/tutorial_2.srcs/sources_1/bd/design_1/ip/design_1_microblaze_0_0/data/mb_bootloop_le.elf
//
// Address space 'design_1_i_microblaze_0.design_1_i_microblaze_0_local_memory_lmb_bram_64K_3_ADDR_SPACE', bit lane [31:0].
//
// Bus width = 32 bits, number of bus blocks = 1.

@00000000
    B8000000
